{
    "prepare_queue": {
        "installed": [],
        "uninstalled": []
    },
    "config_munge": {
        "files": {
            "res/xml/config.xml": {
                "parents": {
                    "/*": [
                        {
                            "xml": "<feature name=\"Keyboard\"><param name=\"android-package\" value=\"com.ionic.keyboard.IonicKeyboard\" /><param name=\"onload\" value=\"true\" /></feature>",
                            "count": 1
                        },
                        {
                            "xml": "<feature name=\"Device\"><param name=\"android-package\" value=\"org.apache.cordova.device.Device\" /></feature>",
                            "count": 1
                        },
                        {
                            "xml": "<feature name=\"EmailComposer\"><param name=\"android-package\" value=\"de.appplant.cordova.plugin.emailcomposer.EmailComposer\" /></feature>",
                            "count": 1
                        }
                    ]
                }
            },
            "AndroidManifest.xml": {
                "parents": {
                    "/manifest/application": [
                        {
                            "xml": "<provider android:authorities=\"com.ionicframework.drozel370802.plugin.emailcomposer.attachmentprovider\" android:name=\"de.appplant.cordova.plugin.emailcomposer.AttachmentProvider\"></provider>",
                            "count": 1
                        }
                    ]
                }
            }
        }
    },
    "installed_plugins": {
        "com.ionic.keyboard": {
            "PACKAGE_NAME": "com.ionicframework.drozel370802"
        },
        "org.apache.cordova.device": {
            "PACKAGE_NAME": "com.ionicframework.drozel370802"
        },
        "de.appplant.cordova.plugin.email-composer": {
            "PACKAGE_NAME": "com.ionicframework.drozel370802"
        }
    },
    "dependent_plugins": {}
}